-------------------------------------------------------------------------------
Test set: com.example.helloworld.HelloWorldApplicationTests
-------------------------------------------------------------------------------
Tests run: 1, Failures: 0, Errors: 0, Skipped: 0, Time elapsed: 0.317 s - in com.example.helloworld.HelloWorldApplicationTests
